{
    "venders": "Content/vendors",
    "js" : "Content/js",
    "images" : "Content/images",
    "css" :"Content/css",
    "fonts" :"Content/fonts",
    "vendor_files": {
        "js": [
            "node_modules/**/jquery.js",
            "node_modules/**/jquery.**.min.js",
            "node_modules/**/jquery.**-min.js",
            "node_modules/**/jquery.popupoverlay.js",
            "bower_components/**/morris.min.js",
            "node_modules/**/bootstrap*.min.js",
            "node_modules/**/raphael*.min.js",
            "bower_components/**/modernize*.js",
            "node_modules/**/pace.js",
            "node_modules/**/dataTables.*.js",
            "node_modules/**/jquery.flot*.js",
            "node_modules/select2/select2.js",
            "node_modules/**/jquery.cookie.js",
            "node_modules/**/*sweet-alert.js",
            "node_modules/**/*switchery.js",
            "node_modules/**/*jquery-ui-timepicker-addon.min.js",
            "bower_components/jqueryui/jquery-ui.min.js",
            "bower_components/jqueryui-datepicker/datepicker.js"
        ],
        "css": [
            "node_modules/**/*.min.css",
            "node_modules/**/modernize/**/*"
        ],
        "images": [
            "node_modules/**/*.{png , svg , gif,jpg}"
        ],
        "fonts": [
            "node_modules/**/*.{ttf,eot,svg,woff2,woff}"

        ]
    }
}