<?xml version="1.0" standalone="no"?>
<!DOCTYPE svg PUBLIC "-//W3C//DTD SVG 1.1//EN" "http://www.w3.org/Graphics/SVG/1.1/DTD/svg11.dtd" >
<svg xmlns="http://www.w3.org/2000/svg">
<metadata>Generated by IcoMoon</metadata>
<defs>
<font id="icomoon" horiz-adv-x="1024">
<font-face units-per-em="1024" ascent="960" descent="-64" />
<missing-glyph horiz-adv-x="1024" />
<glyph unicode="&#x20;" horiz-adv-x="512" d="" />
<glyph unicode="&#xe900;" glyph-name="referee" d="M463.635 941.143c-103.447-14.055-157.981-77.586-164.165-192.276-1.687-36.544-4.497-49.474-10.12-49.474-12.369 0-19.116-19.678-19.116-53.411 0-46.1 10.12-81.52 25.3-87.141 7.871-3.374 16.304-15.742 24.175-38.229 6.746-18.553 18.553-42.728 26.424-54.533l14.617-20.801-16.866 3.936c-19.678 3.936-33.17-1.687-69.152-32.046-55.096-46.1-100.636-134.368-119.189-235.004-14.055-73.649-12.369-91.078 10.683-111.318 50.599-44.415 163.602-95.575 247.372-111.318 71.962-13.492 173.16-8.433 241.75 11.807 82.082 23.612 158.543 63.529 204.081 105.695 16.304 15.742 17.991 20.24 17.991 50.037 0 105.132-50.037 219.823-128.185 292.349-30.921 29.234-51.161 37.107-71.4 28.111-11.807-5.621-11.245-3.936 6.746 25.862 10.12 17.429 21.925 41.604 25.3 53.411s11.245 24.175 16.866 26.987c13.492 7.308 19.678 23.612 26.987 69.152 6.746 41.604 2.249 71.4-11.245 74.774-6.746 1.687-10.683 14.055-15.742 47.787-14.055 95.575-31.483 133.806-61.844 133.806-8.996 0-25.3 8.433-39.354 19.678-50.037 39.354-95.014 51.161-161.915 42.166zM559.772 904.598c9.558-3.374 29.796-16.304 44.978-28.111 15.742-12.369 37.107-23.050 47.787-24.737 17.991-3.374 20.801-6.184 29.796-33.17 5.059-16.304 12.93-53.971 16.304-83.769 5.621-42.728 8.996-54.533 16.866-56.783 14.055-3.374 15.742-13.492 10.12-50.037-3.374-17.991-5.621-34.295-5.621-37.107 0-2.249-6.184-6.746-13.492-10.12-8.433-3.936-15.742-14.617-20.24-29.796-18.553-62.967-66.903-123.123-115.815-144.489l-25.3-11.245-15.742 16.866c-8.996 9.558-19.678 17.429-23.612 17.429s0 7.308 8.433 16.304c10.12 10.683 15.179 20.801 13.492 29.234-1.687 12.369-4.497 13.492-37.667 15.179l-35.42 1.687-24.737-25.3-24.175-25.3-16.866 19.678c-20.24 22.488-38.792 57.908-48.35 89.391-3.936 13.492-11.807 24.737-19.116 28.111-14.617 6.746-24.175 38.792-21.925 71.962l2.249 23.612 6.746-16.866c13.492-34.295 21.363-44.978 33.733-46.663 19.116-2.812 27.549 7.308 32.046 37.107 2.249 14.617 6.746 29.796 9.558 33.733 3.936 4.497 21.925 6.746 51.724 6.746 51.161 0 120.874 14.617 168.663 35.982l31.483 14.055v-30.921c0-17.429 2.812-36.544 6.184-43.291 10.683-20.24 28.674-37.667 39.354-37.667 15.742 0 19.116 12.369 6.746 21.925-25.3 20.801-31.483 37.667-27.549 75.336 5.621 51.161-1.687 56.22-51.724 33.17-62.404-28.111-111.879-41.041-175.41-44.415-32.608-1.687-63.529-5.621-68.59-8.433-6.184-2.812-11.245-14.617-13.492-32.608-2.249-15.742-5.621-29.796-8.433-30.921-8.433-5.621-17.991 57.908-15.179 105.132 5.059 98.386 51.161 154.044 138.303 166.976 35.42 5.621 68.59 2.812 93.89-7.871zM347.257 411.542c21.363-23.612 30.921-50.037 32.046-88.266 0.562-36.544 0.562-36.544 20.24-43.291 10.683-3.936 25.862-8.433 33.733-10.12 21.925-4.497 50.599-35.42 50.599-54.533 0-29.234 9.558-44.415 27.549-44.415 19.678 0 25.862 7.308 30.359 35.42 5.059 31.483 22.488 52.286 53.411 62.404 42.728 14.617 51.724 23.050 52.286 50.037v23.612l10.683-25.3c5.621-14.055 10.683-35.42 10.683-47.225l0.562-21.925-36.544 3.374c-41.604 3.936-64.654-3.374-64.654-19.678 0-9.558 2.812-10.683 16.866-7.308l16.866 3.936v-241.188l-20.801-3.936c-41.604-6.746-41.041-7.308-41.041 33.17 0 35.42 0.562 36.544 14.055 36.544h14.055v56.22c0 52.286-0.562 56.22-11.245 56.22-10.12 0-11.245-3.936-11.245-44.978v-44.978h-61.844v44.978c0 41.041-1.125 44.978-11.245 44.978-10.683 0-11.245-3.936-11.245-56.22v-56.22h14.055c13.492 0 14.055-1.125 14.055-36.544 0-40.479-1.687-41.604-44.415-33.17l-17.429 3.936v240.063l14.055-3.374c17.991-4.497 19.116 10.12 1.687 22.488-9.558 6.746-20.801 7.871-50.599 5.059l-38.229-3.374v20.801c0 11.245 3.936 29.796 8.433 41.041 11.807 27.549 10.683 41.041-2.812 41.041-8.433 0-13.492-7.871-22.488-37.107-6.184-20.24-11.245-48.35-11.245-61.844v-24.737h56.22v-231.068l-12.369 3.936c-7.308 2.249-21.925 6.746-32.608 10.683l-19.678 6.746-1.687 195.648c-1.125 189.464 0.562 210.829 15.179 210.829 2.249 0 9.558-5.621 15.742-12.369zM707.632 417.164c5.059-5.059 6.746-39.354 6.746-120.874v-114.128h-19.678c-18.553 0-19.678-1.125-19.678-19.678 0-13.492-2.812-19.678-8.433-19.678-6.746 0-8.433-8.996-8.433-47.225 0-44.415 1.125-48.35 16.304-64.654s15.742-17.991 6.184-23.050c-27.549-14.617-28.111-13.492-28.111 106.819v112.441h46.663l-3.374 35.42c-1.687 19.116-7.871 47.225-12.93 61.844-7.871 24.175-10.683 26.987-22.488 24.737-7.308-1.125-13.492-1.687-13.492-1.125 0 12.93 21.363 56.22 32.046 64.654 16.866 12.93 19.678 13.492 28.674 4.497zM630.049 388.49c-6.746-14.617-12.369-38.229-12.93-52.848l-1.125-26.424-32.608-12.369c-40.479-15.742-44.978-19.678-59.032-47.787l-11.245-21.925-6.746 16.866c-10.683 25.3-39.916 48.35-71.4 55.658l-28.111 6.746 1.125 48.35 15.742-11.807c10.683-7.871 26.424-11.807 51.161-13.492 34.295-2.249 35.42-1.687 51.724 17.429 10.683 12.369 26.424 22.488 44.978 28.674 15.179 5.059 37.107 16.304 47.787 25.3s19.678 15.742 20.801 15.179c0.562-1.125-3.936-13.492-10.12-27.549zM267.985 42.732c-1.687-1.125-15.179 5.059-29.796 14.055l-26.987 16.866-1.687 92.203c-1.125 52.848 0.562 100.636 3.936 112.441 3.374 10.683 16.866 35.982 29.796 56.22l24.175 35.982 1.687-162.478c0.562-89.391 0-163.602-1.125-165.289zM800.959 309.219l20.24-33.733v-193.963l-15.179-10.683c-41.604-28.674-38.229-41.041-40.479 133.244-1.687 173.723-3.374 169.787 35.42 105.132z" />
</font></defs></svg>